1,Test_912,Ana Belen Silveira,1,0,2007-08-24,Niña,alberto@noir.mx,29,2015-09-11 11:56:46,2015-09-10 02:42:58,200.126.144.98,200.126.144.98,NULL,NULL,NULL,2015-08-31 13:33:47,2015-09-11 11:56:46,7,ECU,confirmed_account,NULL,NULL,NULL,NULL
2,Test_2912,test testing,1,0,NULL,Niña,alberto@noir.mx,1,2015-08-31 17:42:28,2015-08-31 17:42:28,190.104.250.236,190.104.250.236,NULL,NULL,NULL,2015-08-31 17:42:28,2015-08-31 17:42:28,2,PE,confirmed_account,NULL,NULL,NULL,NULL
3,Test_3912,Catalina,1,0,2013-05-23,Niña,alberto@noir.mx,9,2015-09-11 14:15:05,2015-09-11 02:54:44,174.129.229.212,190.2.112.66,NULL,NULL,NULL,2015-09-01 03:38:31,2015-09-11 14:15:05,7,ECU,confirmed_account,NULL,NULL,NULL,NULL
4,Test_4912,asad,1,0,2007-05-16,Niño,alberto@noir.mx,4,2015-09-05 15:55:54,2015-09-05 12:29:18,186.136.172.25,186.136.172.25,NULL,NULL,NULL,2015-09-02 19:13:24,2015-09-05 15:55:54,6,CR,confirmed_account,NULL,NULL,NULL,NULL
5,Test_5912,lara,1,0,2007-05-26,Niño,alberto@noir.mx,1,2015-09-04 15:58:58,2015-09-04 15:58:58,201.231.90.17,201.231.90.17,NULL,NULL,NULL,2015-09-04 15:58:58,2015-09-04 15:58:58,1,MX,confirmed_account,NULL,NULL,NULL,NULL
6,Test_6912,katherin,1,0,2002-01-14,Niña,alberto@noir.mx,2,2015-09-09 23:20:37,2015-09-04 23:36:03,186.7.13.191,186.7.26.84,NULL,NULL,NULL,2015-09-04 23:36:03,2015-09-09 23:20:37,1,LATAM,confirmed_account,NULL,NULL,NULL,NULL
7,Test_7912,angela rojas,1,0,2015-08-28,Niña,alberto@noir.mx,1,2015-09-05 00:16:49,2015-09-05 00:16:49,201.240.30.226,201.240.30.226,NULL,NULL,NULL,2015-09-05 00:16:49,2015-09-05 00:16:49,2,PE,confirmed_account,NULL,NULL,NULL,NULL
8,Test_8912,aura,1,0,2004-07-17,Niña,alberto@noir.mx,3,2015-09-15 16:24:04,2015-09-05 18:15:56,191.102.114.20,191.102.114.161,NULL,NULL,NULL,2015-09-05 01:24:07,2015-09-15 16:24:04,4,COL,confirmed_account,NULL,NULL,NULL,NULL
9,Test_9912,melissa,1,0,2004-07-19,Niña,alberto@noir.mx,1,2015-09-05 01:57:40,2015-09-05 01:57:40,200.83.48.4,200.83.48.4,NULL,NULL,NULL,2015-09-05 01:57:40,2015-09-05 01:57:40,3,CHI,confirmed_account,NULL,NULL,NULL,NULL
10,Test_10912,yazmin,1,0,2006-01-03,Niña,alberto@noir.mx,1,2015-09-05 02:03:11,2015-09-05 02:03:11,190.139.214.199,190.139.214.199,NULL,NULL,NULL,2015-09-05 02:03:11,2015-09-05 02:03:11,1,LATAM,confirmed_account,NULL,NULL,NULL,NULL
