{
    com.badlogic.gdx.graphics.Color: {
    	white: { r:1,g:1,b:1,a:1 },
		yellow: {r:1,g:0.9,b:0.06,a:1 },
		pink: {r:0.83,g:0.25,b:0.53,a:1 },
		blue: {r:0,g:0.66,b:0.87,a:1 },
        violet: { r: 0.51, g: 0.26, b: 0.57, a: 1 },
        pink: { r: 0.84, g: 0.25, b: 0.53, a: 1 }
    },
    com.badlogic.gdx.graphics.g2d.BitmapFont: {
        "League Gothic": { file: league_gothic_regular_62_highres.fnt },
        "Museo Sans": { file: museo_sans_500_24_highres.fnt }
    },
    com.badlogic.gdx.scenes.scene2d.ui.Label$LabelStyle: {
        "League Gothic": { font: "League Gothic" },
        "Museo Sans": { font: "Museo Sans" }
    },
    com.badlogic.gdx.scenes.scene2d.ui.TextButton$TextButtonStyle: {
        "Yellow": { up: "btn_yellow", font: "League Gothic", fontColor: "violet" },
        "Category": { up: "btn_categories", font: "League Gothic", fontColor: "pink" },
        "Pink": { up: "btn_pink", font: "League Gothic", fontColor: "white" }
    }
}
